<?xml version="1.0" encoding="UTF-8" standalone="no"?>
<!-- Created with Inkscape (http://www.inkscape.org/) -->

<svg
   width="64"
   height="64"
   viewBox="0 0 16.933334 16.933333"
   version="1.1"
   id="svg5"
   inkscape:version="1.2 (dc2aeda, 2022-05-15)"
   sodipodi:docname="lricon.svg"
   inkscape:export-filename="lricon256.png"
   inkscape:export-xdpi="384"
   inkscape:export-ydpi="384"
   xmlns:inkscape="http://www.inkscape.org/namespaces/inkscape"
   xmlns:sodipodi="http://sodipodi.sourceforge.net/DTD/sodipodi-0.dtd"
   xmlns="http://www.w3.org/2000/svg"
   xmlns:svg="http://www.w3.org/2000/svg"
   xmlns:rdf="http://www.w3.org/1999/02/22-rdf-syntax-ns#"
   xmlns:cc="http://creativecommons.org/ns#"
   xmlns:dc="http://purl.org/dc/elements/1.1/">
  <title
     id="title136">Logray Icon</title>
  <sodipodi:namedview
     id="namedview7"
     pagecolor="#ffffff"
     bordercolor="#666666"
     borderopacity="1.0"
     inkscape:showpageshadow="2"
     inkscape:pageopacity="0.0"
     inkscape:pagecheckerboard="false"
     inkscape:deskcolor="#d1d1d1"
     inkscape:document-units="mm"
     showgrid="true"
     inkscape:zoom="14.640625"
     inkscape:cx="31.965848"
     inkscape:cy="32"
     inkscape:window-width="1587"
     inkscape:window-height="1115"
     inkscape:window-x="355"
     inkscape:window-y="72"
     inkscape:window-maximized="0"
     inkscape:current-layer="layer1">
    <inkscape:grid
       type="xygrid"
       id="grid132"
       empspacing="0" />
  </sodipodi:namedview>
  <defs
     id="defs2" />
  <g
     inkscape:label="Layer 1"
     inkscape:groupmode="layer"
     id="layer1">
    <g
       id="g2278">
      <path
         style="fill:#0b48a8;fill-opacity:1;stroke:#0b48a8;stroke-width:0.0661457;stroke-linecap:butt;stroke-linejoin:miter;stroke-dasharray:none;stroke-opacity:1"
         d="M 4.9155105,6.3168663 C 3.1510496,6.1807775 -6.9248217,6.0446934 -6.7894091,6.0437654 c 2.0645557,-0.014153 9.9774501,0.010087 11.6061609,-0.035097 0.1278467,-0.00356 0.114655,0.018057 0.2201682,0.047086 1.1e-6,0.038862 0.05183,0.2744742 -0.1214095,0.261112 z"
         id="path756"
         sodipodi:nodetypes="ssscs" />
      <path
         style="fill:#0d54c6;fill-opacity:1;stroke:none;stroke-width:0.264583px;stroke-linecap:butt;stroke-linejoin:miter;stroke-opacity:1"
         d="M 10.504458,6.1363253 C 8.4561264,5.9809778 6.1785322,5.9037098 5.1864455,5.9229601 c -0.1943918,0.00379 -0.1959888,0.036076 -0.3100694,0.1675918 -0.074512,0.0859 -0.1390473,0.1554018 -0.077545,0.3474973 0.061505,0.1920957 1.1087694,1.7379333 1.5100956,2.450071 0.3101205,0.5502975 0.6333151,1.7976578 0.7203484,2.4874938 0.09574,0.758848 0.00953,1.143733 -0.1332328,1.640881 -0.090283,0.31439 -0.2791111,0.781283 -0.330594,0.887205 -0.072063,0.148263 -0.2435017,0.440633 -0.2793014,0.535415 -0.084985,0.225002 -0.055563,0.268573 0.1127841,0.339178 0.1448279,0.06074 1.5008826,-0.01025 1.8189014,-0.108295 0.321338,-0.09887 0.597159,-0.178321 1.153798,-0.564444 0.4351,-0.301822 1.5398726,-1.46766 1.9476126,-2.247362 0.40774,-0.779701 1.30995,-2.069964 1.527854,-2.3466588 C 13.405788,8.8021141 14.044552,8.4303667 14.341796,8.2707007 14.798195,8.0255471 15.302115,8.1636171 15.832041,7.648229 16.073475,7.4134163 16.23424,7.1450744 16.159549,6.918057 16.084856,6.6910383 15.796341,6.6908994 15.596792,6.6509771 15.397245,6.611055 15.197209,6.5759459 14.985658,6.5505751 13.496228,6.37195 12.867999,6.3155701 10.504457,6.136317 Z"
         id="path758"
         sodipodi:nodetypes="ssssssssssssssssszsss" />
      <path
         style="fill:#0e63eb;fill-opacity:1;stroke:none;stroke-width:0.264583px;stroke-linecap:butt;stroke-linejoin:miter;stroke-opacity:1"
         d="M 15.483673,5.3102336 C 15.455448,5.0181953 15.335384,4.433296 15.259492,4.117983 15.21246,3.9225776 15.072842,3.5281561 14.909471,3.1279545 14.768457,2.7825182 14.516301,2.1385601 14.366639,2.1326956 c -0.06215,-0.00244 -0.135215,0.022755 -0.185595,0.089618 -0.06552,0.086958 -0.347457,0.5395724 -0.451648,0.7356364 -0.148619,0.2796657 -0.324762,0.6490847 -0.536167,0.9125886 -0.297268,0.3705279 -0.560112,0.5952285 -0.913923,0.847462 -0.453424,0.3232481 -0.944647,0.5884024 -1.200078,0.6800195 -0.611964,0.2194989 -1.4093456,0.3249265 -2.0251996,0.5058723 0.684806,0.022673 1.4577636,0.045918 3.4479736,0.2348922 1.695414,0.1609815 2.709158,0.2936848 3.049827,0.3426941 -0.0076,-0.4835957 -0.03468,-0.8248689 -0.06816,-1.1712451 z"
         id="path760"
         sodipodi:nodetypes="ssssssssscscs" />
    </g>
    <path
       style="fill:none;stroke:#000000;stroke-width:0.264583;stroke-linecap:round;stroke-linejoin:miter;stroke-dasharray:none;stroke-opacity:0.468014"
       d="m -5.0622727,14.653385 c -4.582667,0 -4.5950191,-0.0038 -4.5950191,-0.0038"
       id="path2365" />
    <path
       style="fill:none;stroke:#000000;stroke-width:0.264584;stroke-linecap:round;stroke-linejoin:miter;stroke-dasharray:none;stroke-opacity:0.468014"
       d="m -4.6918569,13.09893 c -4.952087,0 -4.965435,-0.02427 -4.965435,-0.02427"
       id="path2574" />
    <path
       style="fill:none;stroke:#000000;stroke-width:0.264584;stroke-linecap:round;stroke-linejoin:miter;stroke-dasharray:none;stroke-opacity:0.468014"
       d="m -4.3743568,11.494762 -5.282935,0.01296"
       id="path2576"
       sodipodi:nodetypes="cc" />
    <path
       style="fill:none;stroke:#000000;stroke-width:0.264583;stroke-linecap:round;stroke-linejoin:miter;stroke-dasharray:none;stroke-opacity:0.468014"
       d="m -4.9036024,9.9377571 c -4.7409107,0 -4.7536895,-0.012678 -4.7536895,-0.012678"
       id="path2578" />
    <path
       style="fill:none;stroke:#000000;stroke-width:0.26458;stroke-linecap:round;stroke-linejoin:miter;stroke-dasharray:none;stroke-opacity:0.468014"
       d="m -5.6972699,8.3419584 c -3.9493769,0 -3.9600221,-0.015649 -3.9600221,-0.015649"
       id="path2584" />
  </g>
  <metadata
     id="metadata134">
    <rdf:RDF>
      <cc:Work
         rdf:about="">
        <dc:title>Logray Icon</dc:title>
        <dc:creator>
          <cc:Agent>
            <dc:title>Gerald Combs</dc:title>
          </cc:Agent>
        </dc:creator>
      </cc:Work>
    </rdf:RDF>
  </metadata>
</svg>
